      function setUpSearchList() {
        var searchListItemDiv = document.createElement("div");
        searchListItemDiv["id"] = "searchListItem0";
        var searchListItemDivContent =
            '<div id="searchNameText" class="searchNameText" title="a.r.rahman">a.r.rahman</div>';
	searchListItemDiv.innerHTML = searchListItemDivContent;
        $("#searchListItems").appendChild(searchListItemDiv);
      }
      
      
      		    <div id="searchListItems" class="searchListItems">
      			  <div id="searchListItem" class="searchListItem">
      			    <div id="searchNameText" class="searchNameText" title="a.r.rahman">a.r.rahman</div>
      			  </div>
			</div>
			
			
			  function setUpSearchList() {
					  for (var i = 0; i < 1; i++) {
						 var link = document.createElement('div');
						 link.onclick = (function() {
							var currentI = "a.r.rahman";
							return function() {
								onClickLink(currentI + '');
							}
						 })();
						 $("#searchListItems").appendChild(link);
					  }
			      }
